{
    "version": "https://jsonfeed.org/version/1",
    "title": "sekaranglagiviral.com",
    "description": "",
    "home_page_url": "",
    "feed_url": "/feed.json",
    "user_comment": "",
    "author": {
        "name": "Danz"
    },
    "items": [
        {
            "id": "/tentang-kami.html",
            "url": "/tentang-kami.html",
            "title": "Tentang Kami",
            "summary": "Tentang Kamimediaseru.com adalah sebuah web yang berisikan konten - konten menarik dan seru tentunya untuk dibaca. mediaseru.com memuat hal - hal yang bermanfaat baik itu hiburan, artikel atau berita menarik yang bisa baca setiap hari. blog ini dibuat dalam rangka untuk berbagi ilmu, berita dan&hellip;",
            "content_html": "<div class=\"section-title\">\n<h2 id=\"mcetoc_1e8224hn70\" class=\"align-center\">Tentang Kami</h2>\n<hr></div>\n<div class=\"article-post\">\n<div class=\"row justify-content-between\">\n<div class=\"col-md-8 pr-5\">\n<p>mediaseru.com adalah sebuah web yang berisikan konten - konten menarik dan seru tentunya untuk dibaca. mediaseru.com memuat hal - hal yang bermanfaat baik itu hiburan, artikel atau berita menarik yang bisa baca setiap hari.</p>\n<p>blog ini dibuat dalam rangka untuk berbagi ilmu, berita dan pengalaman seputar tips dan trik, Hiburan, Teknologi, Gaya Hidup dan Lainya. Akan tetapi dengan mengesampingkan deskripsi blog ini, tidak menutup kemungkinan blog ini untuk menampilkan artikel diluar deskripsi tersebut. Karena penulis bermaksud untuk berbagi ilmu dan pengalaman pribadi.</p>\n<p>Segala kritik dan saran yang membangun sangat kami butuhkan demi perkembangan blog ini. Apabila anda mempunyai saran, tips atau hanya sekedar bertanya, anda bisa menghubungi kami lewat halaman Kontak blog ini, atau anda bisa langsung email ke: admin@mediaseru.com</p>\n</div>\n</div>\n</div>",
            "author": {
                "name": "Danz"
            },
            "tags": [
            ],
            "date_published": "2020-05-11T21:47:53+07:00",
            "date_modified": "2020-05-11T21:50:03+07:00"
        },
        {
            "id": "/paus-fransiskus-serukan-orang-beriman-dari-semua-agama-berpuasa-saat-ramadhan-agar-pandemi-corona-berakhir.html",
            "url": "/paus-fransiskus-serukan-orang-beriman-dari-semua-agama-berpuasa-saat-ramadhan-agar-pandemi-corona-berakhir.html",
            "title": "Paus Fransiskus Serukan Orang Beriman dari Semua Agama Berpuasa saat Ramadhan Agar Pandemi Corona Berakhir",
            "summary": "Pemimpin Umat Katolik dunia, Paus Fransiskus telah menyerukan “orang beriman dari semua agama” untuk bersatu pada Kamis depan (14/5/2020) berpuasa dan berdoa di siang hari untuk meminta agar Tuhan membantu umat manusia mengatasi pandemi virus corona. Komite Tinggi Persaudaraan Manusia, sebuah kelompok antaragama terkemuka menyelenggarakan&hellip;",
            "content_html": "<p>Pemimpin Umat Katolik dunia, Paus Fransiskus telah menyerukan “orang beriman dari semua agama” untuk bersatu pada Kamis depan (14/5/2020) berpuasa dan berdoa di siang hari untuk meminta agar Tuhan membantu umat manusia mengatasi pandemi virus corona.</p>\n<p>Komite Tinggi Persaudaraan Manusia, sebuah kelompok antaragama terkemuka menyelenggarakan hari doa sedunia yang dijadwalkan digelar pada 14 Mei, selama bulan suci Ramadhan ketika umat Islam berpuasa dari fajar hingga matahari terbenam.</p>\n<p>Diwartakan Al Arabiya, Imam Besar Mesir, Ahmad al-Tayeb juga menyambut inisiatif itu. Dalam sebuah posting di Facebook, dia mengundang orang-orang di seluruh dunia untuk berdoa dan melakukan pekerjaan amal “demi Allah SWT, untuk mengangkat pandemi ini dari kita dan seluruh dunia”.</p>\n<p> </p>\n<p>Yoannis Lahzi Gaid, ajudan Paus Fransiskus yang juga adalah pastor Mesir dan anggota Komite Tinggi Persaudaraan Manusia mengatakan, hari itu akan menjadi momen yang bersejarah.</p>\n<p>“Ini akan menjadi pertama kalinya bahwa semua umat manusia bersatu untuk satu tujuan: untuk berdoa bersama, masing-masing sesuai dengan iman mereka, memberikan bukti bahwa iman bersatu, tidak terpecah,” kata Gaid dalam sebuah wawancara dengan Al Arabiya.</p>\n<p>Pandemi mempengaruhi semua orang melintasi perbatasan dan budaya tanpa pandang bulu, tanpa memandang agama dan latar belakang mereka.</p>\n<p>“Virus ini membuat kami memahami kerapuhan kami dan kebutuhan untuk bersatu sebagai saudara. Kami tidak bisa keluar dari ini secara terpisah, “kata Gaid.</p>\n<p>“COVID-19 telah membuat kita semua bertekuk lutut. Tetapi berlutut adalah posisi terbaik untuk berdoa, ”tambahnya.</p>\n<p>Komite, yang didirikan tahun lalu dengan dukungan dari Uni Emirat Arab, juga menyerukan kepada orang-orang untuk berdoa agar para ilmuwan menemukan vaksin Covid-19 sesegera mungkin.</p>\n<p>Meskipun bidang sains modern dan kepercayaan tradisional sering dianggap tidak sejalan dengan agama, Gaid mengatakan tidak ada kontradiksi antara keduanya, seperti yang ditunjukkan oleh pandemi.</p>\n<p>“Ada yang komplementer. Ilmu tanpa iman tetap tanpa cakrawala dan iman tanpa ilmu tetap tanpa pendukung. Ini pelajaran hebat COVID-19,” kata Gaid.</p>\n<p>Para pemimpin dunia lainnya juga telah mendukung seruan doa 14 Mei, termasuk Putra Mahkota Abu Dhabi Sheikh Mohamed bin Zayed Al Nahyan, Presiden Libanon Michel Aoun, Sekretaris Jenderal PBB Antonio Guterres, dan Patriark Ekumenis Konstantinopel Bartholomew.</p>\n<p>KOMENTAR NETIZEN:</p>\n<p><img class=\"shadow-lg\" src=\"https://bacaanseru.com/assets/posts/2020-05-07/2/1.jpg\"></p>\n<p>Sumber: <a href=\"https://news.okezone.com/read/2020/05/06/18/2209957/paus-fransiskus-serukan-umat-beragama-berpuasa-saat-ramadhan-agar-pandemi-covid-19-berakhir\" target=\"_blank\" rel=\"noopener noreferrer\">OkeZone.com</a></p>",
            "image": "/media/posts/6/paus.jpg",
            "author": {
                "name": "Danz"
            },
            "tags": [
                   "Viral",
                   "Inspirasi"
            ],
            "date_published": "2020-05-11T21:42:12+07:00",
            "date_modified": "2020-05-11T21:42:12+07:00"
        },
        {
            "id": "/kebijakan-privasi.html",
            "url": "/kebijakan-privasi.html",
            "title": "Kebijakan Privasi",
            "summary": "Kebijakan PrivasiSemua bentuk informasi yang terdapat di mediaseru.com hanya bersifat sebagai referensi belaka dan harap tidak digunakan sebagai dasar informasi untuk perdagangan saham, transaksi keuangan, ataupun transaksi lainnya. Kami tidak bertanggung jawab atas kerugian yang diakibatkan oleh tindakan yang berhubungan dengan penggunaan informasi yang terdapat&hellip;",
            "content_html": "<div class=\"section-title\">\n<h2 id=\"mcetoc_1e8224hn70\" class=\"align-center\">Kebijakan Privasi</h2>\n<hr></div>\n<div class=\"article-post\">\n<div class=\"row justify-content-between\">\n<div class=\"col-md-8 pr-5\">\n<p>Semua bentuk informasi yang terdapat di mediaseru.com hanya bersifat sebagai referensi belaka dan harap tidak digunakan sebagai dasar informasi untuk perdagangan saham, transaksi keuangan, ataupun transaksi lainnya. Kami tidak bertanggung jawab atas kerugian yang diakibatkan oleh tindakan yang berhubungan dengan penggunaan informasi yang terdapat di www.mediaseru.com. Kami akan berusaha semaksimal mungkin untuk menampilkan informasi yang seakurat mungkin.</p>\n<p>Kami tidak bertanggung jawab atas segala kesalahan dan keterlambatan informasi yang dimuat di situs kami. www.mediaseru.com mungkin menyediakan link ke situs pihak ketiga, termasuk iklan yang ada pada situs kami. Beberapa link tersebut mungkin mengandung materi yang tidak menyenangkan, tidak sesuai hukum, atau tidak akurat, namun link tersebut tidak memperlihatkan bahwa kami setuju akan situs-situs dari pihak ketiga tersebut. www.mediaseru.com tidak memiliki hak cipta ataupun hak kekayaan intelektual terhadap foto yang ditampilkan di situs kami.</p>\n<p>Pengunjung mengetahui dan menyetujui bahwa www.mediaseru.com tidak bertanggung jawab atas konten atau material lain yang terdapat pada situs-situs pihak ketiga tersebut. Setiap perjanjian dan transaksi antara pengunjung www.mediaseru.com dan pemasang iklan yang ada di www.mediaseru.com adalah antara pembaca dan pihak pemasang iklan. Kami tidak bertanggung jawab atas setiap kehilangan atau klaim yang mungkin disebabkan oleh perjanjian atau transaksi antara pembaca dan pihak pemasang iklan.</p>\n<h4 id=\"mcetoc_1e8224hn71\">File-file Log</h4>\n<p>www.mediaseru.com menggunakan file-file log yang di dalamnya meliputi IP Address, jenis browser, ISP (atau Internet Service Provider), tanggal/waktu, halaman rekomendasi /keluar, dan jumlah klik untuk menganalisis kecenderungan, mengelola situs web, melacak pergerakan pengguna di sekitar situs web, dan pengumpulan informasi demografis. Informasi-informasi tersebut tidak terkait dengan informasi apapun yang bersifat pribadi.</p>\n<h5 id=\"mcetoc_1e8227vnt4\">Cookies dan Web Beacons</h5>\n<p>www.mediaseru.com tidak menggunakan cookies untuk menyimpan informasi pengunjung, merekam informasi pengguna tertentu pada halaman mana yang dikunjungi, menyesuaikan konten halaman web berdasarkan jenis browser, atau informasi lainnya yang pengunjung kirimkan melalui browser mereka.</p>\n</div>\n</div>\n</div>",
            "author": {
                "name": "Danz"
            },
            "tags": [
            ],
            "date_published": "2020-05-11T21:30:29+07:00",
            "date_modified": "2020-05-11T21:34:40+07:00"
        },
        {
            "id": "/surat-yang-didapat-bcl-and-ashraf-sinclair-11-tahun-lalu-jadi-kenyataan-begini-isinya-benar-benar-nyata.html",
            "url": "/surat-yang-didapat-bcl-and-ashraf-sinclair-11-tahun-lalu-jadi-kenyataan-begini-isinya-benar-benar-nyata.html",
            "title": "Surat yang Didapat BCL &amp; Ashraf Sinclair 11 Tahun Lalu Jadi Kenyataan, Begini Isinya: &#x27;Benar-Benar Nyata&#x27;",
            "summary": "Di dalam surat itu Anne Avantie berpesan, agar Bunga Citra Lestari dan Ashraf Sinclair memelihara cinta mereka sampai maut memisahkan. Anne Avantie tak menyangka kini hal tersebut menjadi kenyataan. Desainer ternama Anne Avantie membagikan sebuah kisah menyentuh tentang Bunga Citra Lestari dan Ashraf Sinclair, pada&hellip;",
            "content_html": "<p>Di dalam surat itu Anne Avantie berpesan, agar Bunga Citra Lestari dan Ashraf Sinclair memelihara cinta mereka sampai maut memisahkan.</p>\n<p>Anne Avantie tak menyangka kini hal tersebut menjadi kenyataan.</p>\n<p>Desainer ternama Anne Avantie membagikan sebuah kisah menyentuh tentang Bunga Citra Lestari dan Ashraf Sinclair, pada Selasa (18/2/2020).</p>\n<p>Anne Avantie mengungkit soal surat yang pernah ia berikan kepada Bunga Citra Lestari dan Ashraf Sinclair di hari pernikahan mereka.</p>\n<p>Bunga Citra Lestari dan Ashraf Sinclair diketahui menikah 11 tahun yang lalu, 8 November 2008 silam.</p>\n<p>Mulanya Anne Avantie menceritakan tragedi yang tidak banyak orang tahu.</p>\n<p>Kebaya yang ia rancang untuk dipakai BCL melangsungkan akad nikah tiba-tiba saja hilang.</p>\n<p>Hal itu membuat Anne Avantie kelabakan dan panik saat mengetahui kebaya yang ia bawa tidak ada.</p>\n<p><strong><img src=\"http://s2.pastiheboh.com/idimgs/202002/22/9/15823334505311.jpg\" alt=\"\"></strong></p>\n<p>“Sebuah kisah kebaya Akad BCL dan Ashraf, sedihhh sekali, sangat sedihh teringat saat saya membuat baju pernikahan mereka.</p>\n<p>Saat yang sangat indah, teringat waktu itu baju akad BCL tiba tiba hilang,</p>\n<p>Di gantungan baju saat akan dikenakan saya bawa dari Butik Grand Indonesia ke rumah BCL,</p>\n<p>Waktu masuk mobil jelas jelas di bawa, Tapi mau diturunkan H-1. Baju itu tidak ada,” tulis Anne Avantie.</p>\n<p>Sampai di depan rumah BCL, Anne Avantie pun menangis.</p>\n<p>Setelah dicari-cari ternyata kebaya akad Bunga Citra Lestari terjatuh di parkiran mobil Grand Indonesia.</p>\n<p>“Kira kira satu jam di telusuri ternyata ada di parkiran Grand indonesia terjatuh dari hanger, ditemukan petugas parkir.</p>\n<p>Sebuah kisah yg tidak banyak orang tau, yg tidak terungkap kata saat itu.</p>\n<p>Ketika, kebaya akad nikah itu sampai di tangan saya kembali setelah 2 jam yang di temukan oleh tukang parkir,” tulis Anne Avantie.</p>\n<p>Anne Avantie mengaku sangat bersyukur kala itu, ia lantas menuliskan sepucuk surat untuk Bunga Citra Lestari dan Ashraf Sinclair.</p>\n<p>“Saya tak hentinya bersyukur.</p>\n<p>Lalu saya menuliskan kisah kebaya itu dan saya serahkan secarik kertas itu kepada BCL dan Ashraf, usai acara,” tulis Anne Avantie.</p>\n<p>Di dalam surat itu Anne Avantie berpesan, agar Bunga Citra Lestari dan Ashraf Sinclair memelihara cinta mereka sampai maut memisahkan.</p>\n<p>Anne Avantie tak menyangka kini hal tersebut menjadi kenyataan.</p>\n<p>“Saya Berpesan, ‘Tetap lah setia sampai maut memisahkan</p>\n<p>Ini surat buat kalian, sebuah cerita tentang kebaya akad mu’</p>\n<p>Dan hari ini, janji setia sehidup semati, sampai mau memisahkan, benar benar nyata.</p>\n<p>Selamat jalan yg terkasih @ashrafsinclair,</p>\n<p>Inna lillahi wa inna illahi roji’un.</p>\n<p>Doa kami mengantarkan mu dalam kehidupan kekal nan abadi,” tulis Anne Avantie.</p>\n<p><img src=\"http://s2.pastiheboh.com/idimgs/202002/22/9/15823334515131.jpg\" alt=\"\"></p>\n<p>Anne Avantie ceritakan kisah sedih kebaya pernikahan yang hilang milik BCL dan Ashraf Sinclair.</p>\n<p>Sumber: <a href=\"https://fame.grid.id/read/462031642/surat-yang-didapat-bcl-ashraf-sinclair-11-tahun-lalu-jadi-kenyataan-begini-isinya-benar-benar-nyata?page=all\">Grid</a></p>",
            "image": "/media/posts/4/inspirasi.jpg",
            "author": {
                "name": "Danz"
            },
            "tags": [
                   "Viral",
                   "Inspirasi"
            ],
            "date_published": "2020-05-11T21:24:43+07:00",
            "date_modified": "2020-05-11T21:24:43+07:00"
        },
        {
            "id": "/terungkap-xiaomi-rekam-rahasia-pengguna-ponselnya-datanya-dikirim-ke-alibaba-hingga-reaksi-xiaomi.html",
            "url": "/terungkap-xiaomi-rekam-rahasia-pengguna-ponselnya-datanya-dikirim-ke-alibaba-hingga-reaksi-xiaomi.html",
            "title": "TERUNGKAP Xiaomi Rekam Rahasia Pengguna Ponselnya Datanya Dikirim ke Alibaba hingga Reaksi Xiaomi",
            "summary": "Perusahaan ponsel terkemuka dunia asal China Xiaomi ternyata merekam semua aktivitas penggunanya. Data aktivitas pengguna ponsel Xiaomi ini dikirim ke server milik raksasa teknologi China lainnya, Alibaba. Borok Xiaomi ini dibongkar oleh peneliti keamanan siber yang berpengalaman Gabi Cirlig yang dilansir majalah Forbes, 30 April 2020&hellip;",
            "content_html": "<p>Perusahaan ponsel terkemuka dunia asal China Xiaomi ternyata merekam semua aktivitas penggunanya.</p>\n<p>Data aktivitas pengguna ponsel Xiaomi ini dikirim ke server milik raksasa teknologi China lainnya, <a href=\"https://medan.tribunnews.com/tag/alibaba\" title=\"Alibaba\">Alibaba</a>.</p>\n<p>Borok Xiaomi ini dibongkar oleh peneliti keamanan siber yang berpengalaman Gabi Cirlig yang dilansir majalah Forbes, 30 April 2020 menjadi berita eksklusif berjudul: <strong><em>Exclusive: Warning Over Chinese Mobile Giant Xiaomi Recording Millions Of People’s ‘Private’ Web And Phone Use</em></strong> “Ini adalah pintu belakang dengan fungsi telepon,” gurau Cirlig setengah bercanda tentang ponsel Xiaomi barunya.</p>\n<p>Cirlig mengungkapkan smartphone Redmi Note 8-nya merekam semua aktivitas ponselnya.</p>\n<p>Data itu kemudian dikirim ke server milik raksasa teknologi China lainnya, <a href=\"https://medan.tribunnews.com/tag/alibaba\" title=\"Alibaba\">Alibaba</a>, yang seolah-olah disewa oleh Xiaomi.</p>\n<p>Semua aktivitas pengguna ponselnya, termasuk situs/web yang dia kunjungi, mesin pencari yang dipakai apakah Google atau DuckDuckGo hingga situs berita yang dikunjungi terekam di default web ponsel ini.</p>\n<p>Semua data dikemas dan dikirim ke server di Singapura dan Rusia, meskipun hosting domain web Xiaomi terdaftar di Beijing.</p>\n<p>Pelacakan juga terjadi bahkan saat Cirlig menggunakan mode “incogtino/penyamaran” yang seharusnya pribadi.</p>\n<p>Atas permintaan Forbes, peneliti cybersecurity Andrew Tierney menyelidiki lebih lanjut.</p>\n<p>Tierney juga menemukan browser buatan Xiaomi di Google Play — Mi Browser Pro dan Mint Browser — mengumpulkan data yang sama.</p>\n<p>Alhasil lebih dari 15 juta unduhan dilakukan kedua browsing ini, menurut statistik Google Play.</p>\n<p>Xiaomi, perusahaan bernilai 50 miliar dolar AS, adalah satu dari empat pembuat smartphone teratas di dunia berdasarkan pangsa pasar, di bawah Apple, Samsung, dan Huawei.</p>\n<p>Xiaomi menjual perangkat murah yang memiliki banyak kualitas yang sama dengan smartphone kelas atas.<br>Tapi ada harga mahal yang harus dibayar pelanggan masalah keamanan privasi.</p>\n<p>Cirlig mengaku sudah mengunduh firmware untuk ponsel Xiaomi lainnya, termasuk Xiaomi MI 10, Xiaomi Redmi K20 dan Xiaomi Mi MIX 3.</p>\n<p>Dia mengkonfirmasi semua ponsel Xiaomi memiliki kode peramban (penjelajah web) yang sama, membuatnya curiga perangkat ini memiliki masalah keamanan privasi yang sama.</p>\n<p>Bahkan Cirlig mengungkap fakta bahwa data yang diklaim Xiaomi sudah dienkripsi ketika ditransfer dalam upaya untuk melindungi privasi pengguna, bisa ditemukan/dikenali dengan mudah.</p>\n<p>Cirlig dapat dengan cepat mengetahui data yang diambil dari perangkatnya dengan mendekodekan sejumlah informasi yang disembunyikan dengan bentuk encoding crackable yang mudah, dikenal sebagai base64.</p>\n<p>Butuh beberapa detik bagi Cirlig untuk mengubah data yang kacau menjadi potongan informasi yang dapat dibaca.</p>\n<p>“Perhatian utama saya untuk privasi adalah bahwa data yang dikirim ke server mereka dapat dengan mudah dikorelasikan dengan pengguna tertentu,” kata Cirlig.</p>\n<p><strong>Tanggapan Xiaomi</strong><br>Menanggapi temuan ini, Xiaomi mengatakan, “klaim penelitian tidak benar,” dan “privasi dan keamanan menjadi perhatian utama,” menambahkan bahwa “mengikuti dengan ketat dan sepenuhnya mematuhi hukum dan peraturan setempat tentang masalah privasi data pengguna.”</p>\n<p>Tapi seorang juru bicara Xiaomi mengkonfirmasi perangkatnya mengumpulkan data penelusuran penggunanya, mengklaim informasi itu dianonimkan sehingga tidak terikat dengan identitas apa pun.</p>\n<p>Xiaomi mengatakan pengguna telah menyetujui pelacakan tersebut.</p>\n<p>Tetapi, seperti yang ditunjukkan oleh Cirlig dan Tierney, bukan hanya situs web atau pencarian web yang dikirim ke server.</p>\n<p>Xiaomi juga mengumpulkan data tentang ponsel, termasuk nomor unik untuk mengidentifikasi perangkat tertentu dan versi Android.</p>\n<p>Cirlig mengatakan “metadata” seperti itu “dapat dengan mudah dikorelasikan dengan manusia yang sebenarnya di balik layar.”</p>\n<p>Juru bicara Xiaomi juga membantah perangkatnya melakukan perekaman saat pengguna dalam mode penyamaran.</p>\n<p>Baik Cirlig dan Tierney, dalam tes independen menemukan kebiasaan web mereka dikirim ke server jauh terlepas dari mode apa browser diatur, memberikan foto dan video sebagai bukti.</p>\n<p>Ketika Forbes memberi Xiaomi sebuah video yang dibuat oleh Cirlig yang menunjukkan bagaimana pencarian Google untuk “porno” dan kunjungan ke situs PornHub dikirim ke server jarak jauh, bahkan ketika dalam mode penyamaran, juru bicara Xiaomi menyangkal bahwa informasi itu direkam.</p>\n<p>“Video ini menunjukkan kumpulan data penjelajahan anonim, yang merupakan salah satu solusi paling umum yang diadopsi oleh perusahaan internet untuk meningkatkan pengalaman produk browser secara keseluruhan dengan menganalisis informasi yang tidak dapat diidentifikasi secara pribadi,” kata mereka.</p>\n<p>Baik Cirlig dan Tierney mengatakan perilaku Xiaomi lebih invasif daripada browser lain seperti Google Chrome atau Apple Safari.</p>\n<p>Sumber : <a href=\"https://bacaanseru.com/TERUNGKAP-Xiaomi-Rekam-Rahasia-Pengguna-Ponselnya-Datanya-Dikirim-ke-Alibaba-hingga-Reaksi-Xiaomi/[https://medan.tribunnews.com/2020/05/03/terungkap-xiaomi-rekam-rahasia-pengguna-ponselnya-datanya-dikirim-ke-alibaba-hingga-reaksi-xiaomi?page=3](https://medan.tribunnews.com/2020/05/03/terungkap-xiaomi-rekam-rahasia-pengguna-ponselnya-datanya-dikirim-ke-alibaba-hingga-reaksi-xiaomi?page=3)\">Tribun News</a></p>",
            "image": "/media/posts/3/1.jpg",
            "author": {
                "name": "Danz"
            },
            "tags": [
            ],
            "date_published": "2020-05-11T21:23:44+07:00",
            "date_modified": "2020-05-11T21:23:44+07:00"
        },
        {
            "id": "/belum-kapok-bagi-sembako-isi-sampah-kepada-waria-youtuber-ferdian-paleka-mau-minta-maaf-asal-jumlah-followernya-30-ribu.html",
            "url": "/belum-kapok-bagi-sembako-isi-sampah-kepada-waria-youtuber-ferdian-paleka-mau-minta-maaf-asal-jumlah-followernya-30-ribu.html",
            "title": "Belum Kapok Bagi Sembako Isi Sampah kepada Waria, YouTuber Ferdian Paleka Mau Minta Maaf Asal Jumlah Followernya 30 Ribu",
            "summary": "Dikira telah selesai dengan permohonan maaf, YouTuber Ferdian Paleka kembali berulah. Kali ini ia mengeluh, akun Instagram-nya dilaporkan oleh warganet ke pihak Instagram Indonesia. Akibatnya Ferdian Paleka beberapa kali berganti akun Instagram. Dari penulusuran Showbiz Liputan6.com setidaknya ada tiga akun Instagram atas nama Ferdian Paleka&hellip;",
            "content_html": "<p>Dikira telah selesai dengan permohonan maaf, YouTuber Ferdian Paleka kembali berulah. Kali ini ia mengeluh, akun Instagram-nya dilaporkan oleh warganet ke pihak Instagram Indonesia. Akibatnya Ferdian Paleka beberapa kali berganti akun Instagram.</p>\n<p><img class=\"shadow-lg\" src=\"https://bacaanseru.com/assets/posts/2020-05-07/1.jpg\"></p>\n<p>Dari penulusuran Showbiz Liputan6.com setidaknya ada tiga akun Instagram atas nama Ferdian Paleka dengan konten mirip yakni, @ferdianpalekaa, @ferdianpalekawibisana, dan yang terbaru @ferdianpaleikaa.</p>\n<p><img class=\"shadow-lg\" src=\"https://bacaanseru.com/assets/posts/2020-05-07/3.jpg\"></p>\n<p>Lewat akun Instagram @ferdianpalekawibisana, Ferdian Paleka mengonfirmasi akun ini asli via fitur Instagram Stories. Lalu, ada dua akun Instagram lain, yakni @ferdianpaleikaa (yang mengunggah tiga video di Instagram Stories) serta @ferdianpalekka yang diikuti 16 ribu orang.</p>\n<p>Puas Lo Semua Puassss?</p>\n<p><img class=\"shadow-lg\" src=\"https://bacaanseru.com/assets/posts/2020-05-07/4.jpg\"></p>\n<p>Kami tampilkan ketiga unggahan Instagram Stories terbaru Ferdian Paleka versi @ferdianpaleikaa. Sebagian kata kami tutup karena kasar dan tidak pantas. Dengan latar polos warna pink gradasi jingga, Ferdian Paleka mengoceh, “Gue udah klarifikasi. Puas lo semua puassss. Ganggu hidup orang aja a*****.”</p>\n<p>Menyusul unggahan ini, Ferdian Paleka memamerkan video dirinya berjalan sambil mengonfirmasi kebenaran akunnya. Menyertai video itu, ia menulis, “Report aja truss, reporttt akun real gua aja udah ilang. Puas lo ganggu hidup gue <strong>**</strong>.”</p>\n<p>Hidup Gua Hancur</p>\n<p><img class=\"shadow-lg\" src=\"https://bacaanseru.com/assets/posts/2020-05-07/5.jpg\"></p>\n<p>Ferdian Paleka sempat mengarahkan kamera ke ruang tempat tinggalnya, termasuk menyorot seorang teman yang sedang duduk di kursi. Unggahan ketiga, memperlihatkan video betapa banyak akun menyamar menjadi dirinya. “Puas lo puas, akun gua kagak ada hidup gua ancur *****,” timpalnya.</p>\n<p>Lebih lanjut, Ferdian Paleka mengaku berencana meminta maaf ke muka publik. Namun permintaan maaf di muka publik itu tidak akan diberikan secara cuma-cuma. Dengan kata lain ada syaratnya.</p>\n<p>Minta Maaf ke Publik Asal…</p>\n<p><img class=\"shadow-lg\" src=\"https://bacaanseru.com/assets/posts/2020-05-07/6.jpg\"></p>\n<p>“Gue bakal minta maaf secara publik, kalau akun ini nyampe 40K follower kayak akun gua sebelumnya. Makasih,” tulis Ferdian Paleka dengan latar hitam yang memperlihatkan akun Instagram @ferdianpalekaa tak bisa lagi diakses.</p>\n<p>Seolah mengukuhkan syarat dan ketentuan yang dipasangnya, Ferdian Paleka mengunggah foto diri sedang duduk di dalam mobil. Menyertai foto itu, ia mencuit, “Gua janji, gua bakal nyerahin diri, dan gua bakal minta maaf secara publik, dengan catatan follower gua ini harus nyampe follower seperti akun sebelumnya, 40K follower #ferdianpalekaa #janjiferdianpalekaa.”</p>\n<p>Tangkapan Layar Syarat Ferdian</p>\n<p><img class=\"shadow-lg\" src=\"https://bacaanseru.com/assets/posts/2020-05-07/7.jpg\"></p>\n<p>Gambar di atas adalah tangkapan layar foto dan status teks yang diunggah Ferdian Paleka di akun Instagram. Keterangan lokasi dan sejumlah komentar warganet kami tutup karena berisi kata-kata kasar. Status teks tersebut kini telah dihapus.</p>\n<p>Dua unggahan di Instagram Stories soal syarat 40 ribu follower pun dihapus. Ferdian bikin geger jagat maya sepanjang hari ini lantaran bikin aksi sosial abal-abal. Ia membagikan paket sembako kepada dua waria di Bandung. Ternyata paket itu berisi sampah. Kedua waria ini merasa terhina dan menangis.</p>\n<p>Menyerahkan Diri Ke Polisi…</p>\n<p><img class=\"shadow-lg\" src=\"https://bacaanseru.com/assets/posts/2020-05-07/8.jpg\"></p>\n<p>Berikutnya, unggahan versi @ferdianpalekka yang diikuti 16 ribuan orang. Akun ini belum mengunggah apapun di fitur feed kecuali sebuah konten di Instagram Stories. Isinya, “Gw minta maaf buat semua orang yang tersinggung atas video saya.”</p>\n<p>“Gw bener-bener ga tau sekarang harus ngapain. Tembus 30 ribu followers gw bakal nyerahin diri ke kepolisian,” sambungnya disertai emotikon tangan menjura</p>\n<p>Intinya… Lebih lanjut ia menambahkan, “Gue bukan mau pansos atau apapun itu. Gue benar-benar lagi down sekarang dan enggak tahu harus berbuat apa.” Di pengujung status teks, membuat penegasan.</p>\n<p>“Intinya tembus 30K followers, gue bakal langsung nyerahin diri ke kepolisian,” pungkasnya.</p>\n<p>Sumber : <a href=\"https://www.liputan6.com/showbiz/read/4244900/belum-kapok-youtuber-ferdian-paleka-mau-minta-maaf-ke-publik-asal-jumlah-followernya-30-ribu\" target=\"_blank\" rel=\"noopener noreferrer\">Liputan6</a></p>",
            "image": "/media/posts/2/2.jpg",
            "author": {
                "name": "Danz"
            },
            "tags": [
                   "Viral"
            ],
            "date_published": "2020-05-11T21:22:13+07:00",
            "date_modified": "2020-05-11T21:22:13+07:00"
        },
        {
            "id": "/wabah-corona-disebut-bakal-berakhir-usai-fenomena-bintang-turaya-begini-kata-ahli.html",
            "url": "/wabah-corona-disebut-bakal-berakhir-usai-fenomena-bintang-turaya-begini-kata-ahli.html",
            "title": "Wabah Corona Disebut Bakal Berakhir Usai Fenomena Bintang Turaya, Begini Kata Ahli",
            "summary": "Menjadi pertanyaan bagi setiap orang di seluruh penjuru dunia, kapan pandemi COVID-19 ini akan berakhir. Pasalnya dunia semakin krisis karena wabah yang sudah “berumur” 4 bulan lebih itu namun tampaknya belum ada tanda-tanda akan mereda. Namun baru-baru ini publik Indonesia dibuat geger dengan penemuan cahaya&hellip;",
            "content_html": "<p>Menjadi pertanyaan bagi setiap orang di seluruh penjuru dunia, kapan pandemi COVID-19 ini akan berakhir. Pasalnya dunia semakin krisis karena wabah yang sudah “berumur” 4 bulan lebih itu namun tampaknya belum ada tanda-tanda akan mereda.</p>\n<p>Namun baru-baru ini publik Indonesia dibuat geger dengan penemuan cahaya kecil pada pagi hari yang disebut-sebut menjadi penanda berakhirnya wabah. Fenomena itu disebut sebagai penampakan bintang Turaya.</p>\n<p>“Subhanallah… Bintang TURAYA di pagi hari… benar yang di katakan Rosulullah… akan habis Wabah Covid-19.apa bila ada Bintang di pagi hari. Itulah Bintang Turaya…” cuit salah seorang warganet sembari mengunggah video bukti penampakan bintang tersebut. “Alhamdulillah.Habis sudah sak wasangka manusia dg adanya BUKTI.Bintang itu disaksi kan byk orang.”</p>\n<p><iframe width=\"300\" height=\"315\" src=\"https://www.wowkeren.com/display/videos/2020/05/01/00308968v1.mp4\" frameborder=\"0\" allowfullscreen=\"allowfullscreen\" ></iframe></p>\n<p>Twitter Namun fenomena ini ternyata dipandang berbeda oleh astronom amatir Marufin Sudibyo. Marufin menyebut cahaya kecil di video tersebut bukanlah bintang Turaya, atau yang dikenal juga sebagai bintang Tsuraya,.</p>\n<p>“Bukan (bintang Turaya),” ujarnya, Kamis (30/4). “Kemungkinan besar itu Mars, kalau benar difoto pada saat pagi hari sebelum matahari terbit.”</p>\n<p>Lebih lanjut, menurut Marufin, bintang Turaya yang dimaksud oleh para warganet adalah nomenklatus Arab dari Pleiades. Benda langit ini dikenal juga sebagai bintang Tsuraya atau Ats-Tsuraya.</p>\n<p>“Secara astronomis dia dikenal sebagai Pleiades atau Messier 45 (M45),” ujar Marufin, seperti dilansir dari Kompas, Sabtu (2/5). Sedangkan saat ini, imbuh Marufin, Pleiades masih berada di langit barat atau tepatnya di bawah planet Venus.</p>\n<p>Oleh karena itu, secara teknis Pleiades baru bisa dilihat pasca matahari terbenam. Namun bintang ini pun tak dengan mudah dilihat mengingat kedudukannya yang begitu rendah sehingga sulit untuk diamati secara langsung dengan mata telanjang atau menggunakan lensa kamera ponsel.</p>\n<p>“Pleiades akan berada di langit timur mulai pertengahan Juni mendatang,” pungkasnya. “Tatkala terbit lebih dulu ketimbang matahari.”</p>\n<p>Sumber : <a href=\"https://www.wowkeren.com/berita/tampil/00308968.html\" target=\"_blank\" rel=\"noopener noreferrer\">WowKeren</a></p>",
            "image": "/media/posts/1/9.jpg",
            "author": {
                "name": "Danz"
            },
            "tags": [
                   "Viral"
            ],
            "date_published": "2020-05-11T20:47:21+07:00",
            "date_modified": "2020-05-11T21:16:00+07:00"
        }
    ]
}
